<svg
        viewBox="0 0 10.928 9.578"
        height="36.2"
        xmlns="http://www.w3.org/2000/svg"
        fill="#fff"
>
    <path d="M5.636 7.435H2.434L1.376 9.578.688 8.573l.582-1.165H0l.556-.952h1.19l1.8-3.625.529 1.164-1.191 2.46h2.302l.45.98zM2.99 0l4.26 9.313h2.645L9.05 7.461l1.296-.026.582-.98-2.328.027L5.662.026H2.99V0z" />
</svg>
